<svg width="264" height="264" viewBox="0 0 264 264" fill="none" xmlns="http://www.w3.org/2000/svg">
<g opacity="0.2">
<path d="M53.7504 48.6816L48.576 47.0976C48.576 47.0976 47.2032 51.4272 42.7152 50.1072C40.392 49.4208 39.6528 47.52 39.4944 46.2C39.336 44.6688 40.0224 43.1904 41.184 42.1344C42.504 40.9728 44.8272 40.2336 48.1008 41.9232L51.744 30.3071L46.6752 28.7231L44.5632 35.5343C44.5632 35.5343 36.8544 35.1647 34.3728 43.032C31.9968 50.5824 38.2272 54.4368 41.1312 55.3344C43.296 56.0208 51.0048 57.816 53.7504 48.6816Z" fill="#F5F5F5"/>
<path d="M47.3332 26.3079L52.5247 27.9275L54.0341 23.0888L48.8427 21.4693L47.3332 26.3079Z" fill="#F5F5F5"/>
<path d="M67.9536 35.5871L70.0128 35.0591C70.0128 35.0591 69.5376 33.3167 71.3328 32.8415C72.2832 32.5775 72.9168 33.0527 73.2336 33.4751C73.6032 33.9503 73.7088 34.5839 73.5504 35.1647C73.3392 35.8511 72.7056 36.5375 71.28 36.6959L72.4944 41.3423L74.5536 40.8143L73.8144 38.0687C73.8144 38.0687 76.5072 36.5903 75.6624 33.4223C74.8704 30.4127 71.9664 30.4127 70.8048 30.7295C69.9072 30.9407 66.9504 31.9439 67.9536 35.5871Z" fill="#EBEBEB"/>
<path d="M74.8433 41.7268L72.7502 42.2791L73.262 44.219L75.3551 43.6668L74.8433 41.7268Z" fill="#EBEBEB"/>
<path d="M238.392 89.0208L240.398 89.76C240.398 89.76 241.032 88.0703 242.774 88.704C243.672 89.0208 243.936 89.76 243.989 90.288C244.042 90.9216 243.725 91.5024 243.25 91.872C242.722 92.2944 241.771 92.5584 240.504 91.8192L238.867 96.36L240.874 97.0992L241.824 94.4592C241.824 94.4592 244.886 94.7232 245.995 91.6608C247.051 88.704 244.675 87.0671 243.566 86.6975C242.669 86.3279 239.659 85.4831 238.392 89.0208Z" fill="#EBEBEB"/>
<path d="M240.563 98.0012L238.527 97.2639L237.844 99.1503L239.879 99.8877L240.563 98.0012Z" fill="#EBEBEB"/>
<path d="M25.5024 111.989L29.7264 110.352C29.7264 110.352 28.3536 106.762 32.0496 105.283C33.9504 104.491 35.4288 105.389 36.2208 106.181C37.1184 107.131 37.488 108.451 37.224 109.718C36.96 111.197 35.7984 112.886 32.736 113.467L36.432 123.024L40.656 121.387L38.4912 115.79C38.4912 115.79 43.7712 111.989 41.2896 105.494C38.9136 99.264 32.7888 100.003 30.4128 100.901C28.5648 101.693 22.4928 104.544 25.5024 111.989Z" fill="#F5F5F5"/>
<path d="M41.4317 123.454L37.1947 125.086L38.7322 129.077L42.9692 127.444L41.4317 123.454Z" fill="#F5F5F5"/>
<path d="M240.082 128.093L237.072 129.254C237.072 129.254 238.022 131.789 235.435 132.845C234.062 133.373 233.006 132.792 232.478 132.211C231.845 131.525 231.581 130.574 231.739 129.677C231.95 128.621 232.742 127.459 234.907 127.037L232.267 120.278L229.31 121.44L230.842 125.4C230.842 125.4 227.093 128.093 228.835 132.686C230.525 137.069 234.854 136.594 236.544 135.96C237.864 135.432 242.193 133.426 240.082 128.093Z" fill="#F5F5F5"/>
<path d="M228.773 119.989L231.779 118.832L230.697 116.023L227.691 117.181L228.773 119.989Z" fill="#F5F5F5"/>
</g>
<path d="M248.582 244.886C248.582 244.939 196.363 245.045 132 245.045C67.584 245.045 15.4176 244.992 15.4176 244.886C15.4176 244.781 67.584 244.728 132 244.728C196.363 244.728 248.582 244.781 248.582 244.886Z" fill="#263238"/>
<path d="M214.685 41.2368H216.797C216.797 41.2368 216.797 39.4944 218.645 39.4416C219.595 39.4416 220.07 40.0752 220.282 40.5504C220.493 41.1312 220.44 41.712 220.123 42.24C219.754 42.8208 218.962 43.3488 217.589 43.1376V47.8896H219.648V45.0912C219.648 45.0912 222.552 44.352 222.552 41.1312C222.552 38.0688 219.806 37.3296 218.592 37.3296C217.694 37.3296 214.632 37.5408 214.685 41.2368Z" fill="#FFB800"/>
<path d="M219.648 48.8398H217.536V50.7934H219.648V48.8398Z" fill="#FFB800"/>
<path d="M234.062 44.0352C234.062 44.0352 234.062 43.9296 234.062 43.7712C234.062 43.56 234.062 43.296 234.062 42.9792C234.062 42.8208 234.062 42.6096 234.062 42.3984C234.01 42.1872 234.01 41.976 233.957 41.712C233.904 41.448 233.904 41.184 233.851 40.92C233.798 40.656 233.693 40.3392 233.64 40.0224C233.323 38.7552 232.742 37.224 231.739 35.64C230.736 34.056 229.31 32.472 227.357 31.152C225.403 29.832 222.922 28.8816 220.176 28.6176C219.49 28.6176 218.803 28.512 218.064 28.5648C217.694 28.5648 217.325 28.5648 217.008 28.6176C216.638 28.6704 216.269 28.7232 215.899 28.776C214.474 29.0928 212.995 29.5152 211.622 30.2544C210.25 30.9936 208.93 31.8912 207.768 33.0528C206.606 34.2144 205.656 35.5872 204.864 37.0656C204.072 38.5968 203.544 40.2336 203.333 41.976C203.227 42.3984 203.227 42.8736 203.227 43.296C203.174 43.7184 203.174 44.1936 203.227 44.616C203.28 45.5136 203.386 46.4112 203.544 47.256C203.966 49.1568 204.706 50.952 205.762 52.536V52.3776C205.022 54.2256 204.283 56.0208 203.597 57.7632L203.491 58.08L203.808 57.9744C205.762 57.4464 207.715 56.9184 209.563 56.3904L209.405 56.3376C211.411 57.8688 213.682 58.8192 216.005 59.1888C217.166 59.4 218.275 59.4528 219.384 59.4C219.912 59.4 220.493 59.3472 221.021 59.2416C221.285 59.1888 221.549 59.136 221.813 59.136C222.077 59.0832 222.341 59.0304 222.552 58.9248C226.618 57.8688 229.574 55.3872 231.317 52.9056C232.214 51.6912 232.795 50.424 233.218 49.3152C233.323 49.0512 233.429 48.7872 233.482 48.5232C233.534 48.2592 233.64 47.9952 233.693 47.784C233.746 47.52 233.798 47.3088 233.851 47.0976C233.904 46.8864 233.904 46.6752 233.957 46.464C234.01 46.0416 234.062 45.7248 234.115 45.408C234.115 45.0912 234.115 44.8272 234.168 44.616C234.168 44.4048 234.168 44.2464 234.168 44.1408C234.062 44.1408 234.062 44.0352 234.062 44.0352C234.062 44.0352 234.062 44.088 234.062 44.1936C234.062 44.2992 234.062 44.4576 234.01 44.6688C234.01 44.88 233.957 45.144 233.957 45.4608C233.957 45.7776 233.851 46.1472 233.798 46.5168C233.482 48.1008 232.901 50.4768 231.106 52.9056C229.416 55.3344 226.406 57.7632 222.446 58.7664C222.182 58.8192 221.971 58.9248 221.707 58.9248C221.443 58.9776 221.179 58.9776 220.915 59.0304C220.387 59.136 219.859 59.136 219.331 59.1888C218.275 59.2416 217.166 59.1888 216.005 58.9776C213.787 58.5552 211.517 57.6048 209.563 56.1264L209.51 56.0736H209.458C207.61 56.6016 205.656 57.1296 203.702 57.6576L203.914 57.8688C204.6 56.1264 205.339 54.3312 206.078 52.4832L206.131 52.3776L206.078 52.3248C205.075 50.7936 204.283 48.9984 203.914 47.1504C203.755 46.3056 203.597 45.408 203.597 44.5632C203.597 44.1408 203.597 43.7184 203.597 43.2432C203.597 42.8208 203.597 42.3984 203.702 41.976C203.914 40.2864 204.442 38.6496 205.181 37.1712C205.92 35.6928 206.87 34.3728 208.032 33.2112C209.194 32.1024 210.461 31.152 211.781 30.4656C213.101 29.7264 214.579 29.304 215.952 29.04C216.322 28.9872 216.638 28.9344 217.008 28.8816C217.378 28.8288 217.694 28.8288 218.064 28.8288C218.75 28.776 219.437 28.8288 220.123 28.8816C222.816 29.1456 225.245 30.096 227.198 31.3632C229.152 32.6304 230.578 34.2144 231.581 35.7456C232.584 37.2768 233.165 38.808 233.534 40.0224C233.64 40.3392 233.693 40.656 233.746 40.92C233.798 41.184 233.851 41.448 233.851 41.712C233.904 41.976 233.904 42.1872 233.957 42.3984C233.957 42.6096 234.01 42.8208 234.01 42.9792C234.01 43.296 234.062 43.56 234.062 43.7712C234.01 43.9824 234.062 44.0352 234.062 44.0352Z" fill="#263238"/>
<path d="M76.6128 106.339H107.131C107.131 106.339 107.131 80.7311 133.742 80.2559C147.576 79.9919 154.704 89.0735 157.661 95.9903C161.04 104.069 160.037 113.203 155.496 120.701C150.322 129.254 139.181 137.808 118.642 134.165L118.43 202.118H148.579V161.832C148.579 161.832 190.872 150.902 190.872 104.28C190.872 59.6639 154.81 50.0543 135.432 49.4207C124.661 49.0511 120.754 48.6287 107.395 50.5295C90.3408 52.9583 76.2432 72.7055 76.6128 106.339Z" fill="#FFB800"/>
<path d="M148.896 216.269H118.272V244.833H148.896V216.269Z" fill="#FFB800"/>
<path opacity="0.1" d="M148.896 216.269H118.272V244.833H148.896V216.269Z" fill="black"/>
<path opacity="0.1" d="M76.6128 106.339H107.131C107.131 106.339 107.131 80.7311 133.742 80.2559C147.576 79.9919 154.704 89.0735 157.661 95.9903C161.04 104.069 160.037 113.203 155.496 120.701C150.322 129.254 139.181 137.808 118.642 134.165L118.43 202.118H148.579V161.832C148.579 161.832 190.872 150.902 190.872 104.28C190.872 59.6639 154.81 50.0543 135.432 49.4207C124.661 49.0511 120.754 48.6287 107.395 50.5295C90.3408 52.9583 76.2432 72.7055 76.6128 106.339Z" fill="black"/>
<path d="M63.9408 106.338H94.4592C94.4592 106.338 94.4592 80.7302 121.07 80.255C134.904 79.991 142.032 89.0726 144.989 95.9894C148.368 104.068 147.365 113.202 142.824 120.7C137.65 129.253 126.298 136.962 105.758 133.372V202.117H135.907V161.831C135.907 161.831 178.2 150.901 178.2 104.279C178.2 59.663 138.23 49.3142 121.07 49.3142C107.976 49.367 63.4128 52.535 63.9408 106.338Z" fill="#FFB800"/>
<path opacity="0.2" d="M63.9408 106.338H94.4592C94.4592 106.338 94.4592 80.7302 121.07 80.255C134.904 79.991 142.032 89.0726 144.989 95.9894C148.368 104.068 147.365 113.202 142.824 120.7C137.65 129.253 126.298 136.962 105.758 133.372V202.117H135.907V161.831C135.907 161.831 178.2 150.901 178.2 104.279C178.2 59.663 138.23 49.3142 121.07 49.3142C107.976 49.367 63.4128 52.535 63.9408 106.338Z" fill="black"/>
<path d="M136.277 216.269H105.653V244.834H136.277V216.269Z" fill="#FFB800"/>
<path opacity="0.2" d="M136.277 216.269H105.653V244.834H136.277V216.269Z" fill="black"/>
<path d="M124.502 80.4142C124.502 80.4142 124.344 80.4142 124.027 80.3614C123.71 80.3614 123.288 80.2558 122.707 80.2558C121.598 80.203 119.909 80.203 117.902 80.467C115.896 80.731 113.52 81.2062 110.986 82.1038C109.718 82.579 108.398 83.0542 107.131 83.7406C105.811 84.3742 104.544 85.219 103.382 86.1694C102.168 87.1198 101.165 88.2814 100.32 89.443C99.4224 90.6046 98.6832 91.7662 97.9968 92.9278C96.6768 95.251 95.832 97.5214 95.2512 99.475C94.6704 101.429 94.4592 103.065 94.3536 104.174C94.3008 104.755 94.248 105.177 94.248 105.494C94.248 105.811 94.1952 105.969 94.1952 105.969C94.1952 105.969 94.1952 105.811 94.1952 105.494C94.1952 105.177 94.1952 104.755 94.248 104.174C94.3008 103.065 94.5648 101.376 95.0928 99.4222C95.6208 97.4686 96.5184 95.1982 97.7856 92.8222C98.472 91.6606 99.2112 90.4462 100.109 89.2846C101.006 88.123 102.01 86.9614 103.224 85.9582C104.438 84.955 105.706 84.163 107.026 83.4766C108.346 82.7902 109.666 82.2622 110.933 81.8398C113.467 80.995 115.896 80.467 117.902 80.2558C119.909 80.0446 121.598 80.0446 122.707 80.1502C123.288 80.1502 123.71 80.2558 124.027 80.3086C124.344 80.3614 124.502 80.4142 124.502 80.4142Z" fill="#263238"/>
<path d="M170.438 74.9759C170.438 74.9759 170.386 74.9231 170.333 74.8703C170.28 74.7647 170.174 74.6591 170.069 74.5007C169.805 74.1839 169.488 73.7087 169.066 73.0751C168.854 72.7583 168.59 72.3887 168.326 72.0719C168.01 71.7023 167.693 71.3327 167.376 70.9103C167.059 70.4879 166.69 70.0655 166.267 69.5903C165.845 69.1151 165.422 68.6927 164.947 68.1647C164.472 67.6895 163.997 67.1615 163.469 66.6335C162.941 66.1583 162.36 65.6303 161.779 65.1023C161.462 64.8383 161.198 64.5743 160.882 64.3103C160.565 64.0463 160.248 63.7823 159.878 63.5183C159.192 62.9903 158.558 62.4623 157.819 61.9343C154.915 59.8223 151.536 57.8159 147.84 56.0207C146.89 55.5983 145.992 55.1759 145.042 54.7535C144.091 54.3839 143.194 54.0143 142.296 53.6975C141.398 53.3279 140.501 53.0639 139.603 52.7471C138.706 52.4831 137.861 52.1663 136.963 51.9551C136.118 51.7439 135.274 51.5327 134.429 51.2687C133.637 51.0575 132.792 50.8991 132 50.7407C131.208 50.5823 130.469 50.4239 129.73 50.3183C128.99 50.2127 128.304 50.1071 127.618 50.0015C126.298 49.7903 125.083 49.7375 123.974 49.6319C123.446 49.5791 122.918 49.5263 122.496 49.5263C122.021 49.5263 121.598 49.5263 121.229 49.4735C120.49 49.4735 119.909 49.4207 119.486 49.4207C119.275 49.4207 119.17 49.4207 119.011 49.4207C118.906 49.4207 118.853 49.4207 118.853 49.4207C118.853 49.4207 118.906 49.4207 119.011 49.4207C119.117 49.4207 119.275 49.4207 119.486 49.4207C119.909 49.4207 120.49 49.4207 121.229 49.4207C121.598 49.4207 122.021 49.4207 122.496 49.4207C122.971 49.4207 123.446 49.4735 123.974 49.5263C125.03 49.6319 126.298 49.6319 127.618 49.8431C128.304 49.9487 128.99 50.0543 129.73 50.1071C130.469 50.2127 131.208 50.3711 132 50.5295C132.792 50.6879 133.584 50.7935 134.429 51.0575C135.274 51.2687 136.118 51.4799 136.963 51.6911C137.861 51.9023 138.706 52.2191 139.603 52.4831C140.501 52.7999 141.398 53.0639 142.296 53.4335C143.194 53.8031 144.144 54.1199 145.094 54.4895C145.992 54.9119 146.942 55.3343 147.893 55.7567C151.642 57.5519 155.021 59.5583 157.925 61.7231C158.664 62.2511 159.298 62.8319 159.984 63.3599C160.301 63.6239 160.618 63.8879 160.987 64.1519C161.304 64.4159 161.568 64.6799 161.885 64.9439C162.466 65.4719 163.046 65.9999 163.574 66.5279C164.102 67.0559 164.578 67.5839 165.053 68.0591C165.528 68.5343 165.95 69.0095 166.373 69.4847C166.742 69.9599 167.112 70.4351 167.429 70.8575C167.746 71.2799 168.062 71.6495 168.379 72.0191C168.643 72.3887 168.854 72.7583 169.066 73.0751C169.488 73.7087 169.805 74.1839 170.016 74.5535C170.122 74.7119 170.174 74.8175 170.28 74.9231C170.438 74.9231 170.438 74.9759 170.438 74.9759Z" fill="#263238"/>
<path d="M167.27 140.448C167.27 140.448 167.218 140.554 167.059 140.765C166.901 140.976 166.637 141.293 166.373 141.662C166.056 142.032 165.686 142.507 165.211 143.035C164.736 143.563 164.261 144.144 163.627 144.778C163.046 145.411 162.36 146.098 161.621 146.784C160.882 147.523 160.09 148.21 159.192 149.002C157.45 150.533 155.443 152.064 153.278 153.595C151.061 155.126 148.896 156.394 146.89 157.502C145.886 158.03 144.883 158.558 143.986 158.981C143.088 159.456 142.19 159.826 141.398 160.142C140.606 160.512 139.867 160.776 139.234 160.987C138.6 161.251 138.019 161.41 137.544 161.568C137.122 161.726 136.752 161.832 136.488 161.938C136.224 161.99 136.118 162.043 136.118 162.043C136.118 162.043 136.224 161.99 136.488 161.885C136.752 161.779 137.122 161.674 137.544 161.515C138.019 161.357 138.547 161.146 139.181 160.882C139.814 160.618 140.554 160.354 141.346 159.984C142.138 159.614 143.035 159.245 143.933 158.822C144.883 158.4 145.834 157.872 146.837 157.344C148.843 156.235 151.008 154.915 153.226 153.437C155.39 151.906 157.397 150.374 159.139 148.896C159.984 148.157 160.829 147.418 161.568 146.731C162.307 146.045 162.994 145.358 163.574 144.725C164.208 144.091 164.736 143.51 165.211 143.035C165.686 142.507 166.056 142.085 166.373 141.715C166.69 141.346 166.954 141.082 167.112 140.87C167.165 140.554 167.27 140.448 167.27 140.448Z" fill="#263238"/>
<path d="M135.326 199.742C135.274 199.742 135.168 191.242 135.168 180.787C135.168 170.333 135.221 161.832 135.326 161.832C135.379 161.832 135.485 170.333 135.485 180.787C135.485 191.242 135.432 199.742 135.326 199.742Z" fill="#263238"/>
<path d="M136.488 242.933C136.435 242.933 136.33 236.966 136.33 229.627C136.33 222.288 136.382 216.322 136.488 216.322C136.541 216.322 136.646 222.288 136.646 229.627C136.646 236.966 136.594 242.933 136.488 242.933Z" fill="#263238"/>
<path d="M166.531 102.274C166.003 103.33 167.957 104.175 169.118 104.544C170.28 104.914 171.494 104.861 172.656 104.808C174.24 104.703 175.877 104.597 177.25 103.805C178.464 103.119 179.362 101.957 179.995 100.69C180.629 99.4225 180.998 98.1025 181.368 96.7297C181.368 96.7297 168.907 97.5217 166.531 102.274Z" fill="#FFB800"/>
<g opacity="0.4">
<path opacity="0.4" d="M166.531 102.274C166.003 103.33 167.957 104.175 169.118 104.544C170.28 104.914 171.494 104.861 172.656 104.808C174.24 104.703 175.877 104.597 177.25 103.805C178.464 103.119 179.362 101.957 179.995 100.69C180.629 99.4225 180.998 98.1025 181.368 96.7297C181.368 96.7297 168.907 97.5217 166.531 102.274Z" fill="black"/>
</g>
<path d="M201.749 98.8946C203.808 100.373 206.29 101.112 208.771 101.112C209.986 101.112 211.253 100.848 212.15 100.056C212.573 99.6866 212.837 99.2114 213.259 98.8418C213.523 98.5778 213.893 98.4194 214.157 98.1554C214.421 97.8914 214.632 97.5218 214.526 97.1522C214.421 96.7826 214.157 96.149 213.787 95.9906C212.362 95.1986 210.619 95.1986 208.982 95.2514C207.346 95.3042 205.709 95.6738 204.178 96.2018C202.91 96.6242 201.538 97.2578 200.904 98.4194" fill="#FFB800"/>
<g opacity="0.4">
<path opacity="0.4" d="M214.577 97.152C214.472 96.7824 213.996 96.2544 213.627 96.096C212.201 95.304 210.67 95.1984 209.033 95.2512C207.396 95.304 205.76 95.6736 204.228 96.2016C202.961 96.624 201.588 97.2576 200.955 98.4192L201.747 98.8944C203.806 100.373 206.288 101.112 208.769 101.112C209.984 101.112 211.251 100.848 212.148 100.056C212.571 99.6864 212.835 99.2112 213.257 98.8416C213.521 98.5776 213.891 98.4192 214.155 98.1552C214.472 97.8912 214.63 97.5216 214.577 97.152Z" fill="black"/>
</g>
<path d="M177.408 117.85L203.755 118.219C203.966 118.219 204.178 118.008 204.072 117.797L201.01 108.187C201.01 108.187 201.485 103.383 202.118 97.5747C203.069 88.8099 204.336 77.7219 204.336 77.7747C202.541 72.7059 191.928 71.8611 191.928 71.8611L179.837 72.6003L179.414 71.9139L175.93 73.5507C175.19 73.9203 174.451 74.3427 173.765 74.7651C171.442 76.2963 165.898 79.8339 164.894 83.7939C162.571 92.8755 166.531 103.066 166.531 103.066L169.066 101.059C169.752 100.531 170.386 100.109 171.072 99.6867L176.194 113.362C176.194 113.362 175.138 113.995 175.085 115.104C174.926 116.16 175.56 117.48 177.408 117.85Z" fill="#FFB800"/>
<g opacity="0.3">
<path opacity="0.3" d="M188.707 101.746C189.552 97.2579 189.077 92.6643 188.654 88.1235C187.176 91.8195 187.229 96.0435 185.698 99.6867C185.539 100.109 185.328 100.479 185.275 100.901C185.222 101.324 185.328 101.799 185.645 102.116C186.067 102.485 186.701 102.274 187.282 102.221C187.862 102.116 188.179 101.904 188.707 101.746Z" fill="black"/>
</g>
<g opacity="0.4">
<path opacity="0.4" d="M178.992 112.148C181.104 112.887 183.374 111.514 185.592 111.25C187.07 111.092 188.549 111.408 190.027 111.672C192.984 112.148 196.046 112.253 199.003 111.884C199.478 111.831 199.901 111.778 200.323 111.567C200.746 111.356 201.062 110.722 201.01 110.247C196.046 109.719 191.083 109.455 186.12 108.927C184.853 108.821 183.586 108.663 182.371 109.032C180.893 109.508 179.731 110.669 178.675 111.831" fill="black"/>
</g>
<path d="M213.787 95.4098C211.622 90.5522 204.072 77.1938 204.072 77.1938L198.211 84.533L199.584 99.0002C199.584 99.0002 202.699 95.5154 211.358 95.4626C213.365 95.4626 214.579 97.1522 214.579 97.1522L213.787 95.4098Z" fill="#FFB800"/>
<path d="M178.57 92.8756C178.517 92.8756 178.042 91.5028 177.566 89.7076C177.091 87.9652 176.774 86.4868 176.827 86.4868C176.88 86.4868 177.355 87.8596 177.83 89.6548C178.358 91.3972 178.675 92.8228 178.57 92.8756Z" fill="#263238"/>
<path d="M197.789 83.5828C197.789 83.5828 198 83.7412 198.317 84.058C198.634 84.3748 199.109 84.85 199.637 85.4836C200.64 86.7508 201.907 88.7572 202.435 91.2388C202.699 92.4532 202.752 93.6676 202.594 94.7764C202.435 95.8324 202.277 96.7828 202.118 97.6276C201.96 98.4196 201.907 99.106 201.854 99.5284C201.802 100.004 201.802 100.215 201.802 100.215C201.802 100.215 201.749 99.9508 201.749 99.5284C201.749 99.0532 201.802 98.4196 201.907 97.5748C202.013 96.7828 202.224 95.7796 202.33 94.7236C202.435 93.6676 202.382 92.4532 202.118 91.2916C201.59 88.8628 200.429 86.9092 199.426 85.642C198.475 84.2692 197.736 83.5828 197.789 83.5828Z" fill="#263238"/>
<path d="M192.403 116.688C192.403 116.688 192.192 116.741 191.822 116.847C191.611 116.9 191.4 116.952 191.136 117.005C190.872 117.058 190.555 117.111 190.238 117.111C189.552 117.164 188.707 117.164 187.81 117.111C186.912 117.005 185.909 116.847 184.906 116.53C183.902 116.213 183.005 115.791 182.16 115.368C181.368 114.893 180.682 114.471 180.154 113.996C179.89 113.784 179.678 113.573 179.467 113.362C179.256 113.204 179.098 112.992 178.992 112.887C178.728 112.623 178.622 112.412 178.622 112.412C178.675 112.359 179.203 112.992 180.312 113.837C180.84 114.26 181.526 114.682 182.318 115.104C183.11 115.527 184.008 115.896 185.011 116.213C186.014 116.53 186.965 116.688 187.862 116.794C188.76 116.9 189.552 116.9 190.238 116.847C191.558 116.847 192.403 116.636 192.403 116.688Z" fill="#263238"/>
<path d="M200.534 113.679C200.587 113.679 200.693 113.943 200.746 114.471C200.798 114.946 200.798 115.685 200.587 116.372C200.376 117.111 199.954 117.692 199.531 118.008C199.162 118.325 198.845 118.431 198.845 118.431C198.845 118.378 199.056 118.22 199.426 117.903C199.742 117.586 200.112 117.005 200.323 116.319C200.746 114.893 200.429 113.679 200.534 113.679Z" fill="#263238"/>
<path d="M199.109 115.527C199.162 115.527 199.32 116.266 198.95 117.163C198.634 118.061 198 118.536 197.947 118.431C197.894 118.378 198.37 117.85 198.686 117.058C199.003 116.266 199.003 115.527 199.109 115.527Z" fill="#263238"/>
<path d="M194.357 98.1554C194.41 98.2082 193.934 98.789 193.406 99.5282C192.878 100.267 192.562 100.901 192.509 100.901C192.456 100.901 192.667 100.162 193.195 99.3698C193.723 98.5778 194.357 98.1026 194.357 98.1554Z" fill="#263238"/>
<path d="M176.299 85.378C176.246 85.4308 175.877 85.0612 175.138 84.586C174.398 84.1108 173.395 83.53 172.128 83.0548C170.914 82.5796 169.752 82.3684 168.854 82.2628C168.01 82.1572 167.482 82.1044 167.482 82.1044C167.482 82.0516 168.01 81.9988 168.907 82.1044C169.752 82.1572 170.966 82.3684 172.234 82.8436C173.501 83.3188 174.557 83.9524 175.243 84.4804C175.982 84.9556 176.352 85.378 176.299 85.378Z" fill="#263238"/>
<path d="M204.072 77.0354C204.125 77.0882 202.699 77.9858 201.379 79.517C200.059 81.0482 199.478 82.6322 199.373 82.5794C199.32 82.5794 199.478 82.157 199.742 81.5762C200.006 80.9426 200.482 80.1506 201.168 79.3586C201.854 78.5666 202.541 77.9858 203.122 77.5634C203.702 77.141 204.072 76.9826 204.072 77.0354Z" fill="#263238"/>
<path d="M193.195 72.6531C193.195 72.6531 193.248 72.7587 193.301 72.9171C193.354 73.0755 193.459 73.3395 193.565 73.6563C193.723 74.2899 193.829 75.3459 193.565 76.5075C193.301 77.6691 192.614 79.0419 191.4 80.1507C190.186 81.2595 188.39 81.8931 186.542 81.8931C184.694 81.8931 182.899 81.2595 181.632 80.2563C180.312 79.3059 179.467 78.0387 178.939 76.9827C178.411 75.8739 178.147 74.9235 178.042 74.2899C177.989 73.9731 177.936 73.7091 177.936 73.4979C177.936 73.3395 177.936 73.2339 177.936 73.2339C177.989 73.2339 177.989 73.6035 178.147 74.2371C178.306 74.8707 178.57 75.8211 179.098 76.8771C179.678 77.9331 180.523 79.0947 181.79 80.0451C183.058 80.9955 184.747 81.5763 186.542 81.6291C188.338 81.6291 190.08 80.9955 191.242 79.9923C192.403 78.9363 193.09 77.6163 193.354 76.5075C193.618 75.3459 193.565 74.3427 193.459 73.7091C193.354 73.0227 193.195 72.6531 193.195 72.6531Z" fill="#263238"/>
<g opacity="0.3">
<path opacity="0.3" d="M195.043 99.1058C195.043 98.8418 194.99 98.525 194.779 98.4194C194.621 98.3138 194.462 98.3666 194.304 98.4194C194.146 98.4722 194.04 98.6306 193.934 98.7362C193.301 99.4226 192.826 100.109 192.509 101.007L195.096 100.795C195.096 100.215 195.096 99.6338 195.043 99.1058Z" fill="black"/>
</g>
<g opacity="0.3">
<path opacity="0.3" d="M203.65 93.6676C203.438 92.1892 202.699 90.8164 201.749 89.6548C202.858 93.298 202.488 95.3572 201.854 97.8916L202.013 97.522C202.752 96.0436 203.861 95.146 203.65 93.6676Z" fill="black"/>
</g>
<path d="M198.475 216.427L196.891 240.082L186.595 239.976L185.011 215.371L198.475 216.427Z" fill="#FFBE9D"/>
<path d="M197.208 236.967V237.653C197.208 237.653 208.824 242.299 208.93 244.517L185.856 244.359L186.226 236.703C189.658 238.339 193.248 238.551 197.208 236.967Z" fill="#FFB800"/>
<path d="M188.549 239.184C188.126 239.29 187.81 239.818 187.915 240.24C188.021 240.715 188.496 241.032 188.971 240.927C189.394 240.821 189.816 240.24 189.658 239.765C189.499 239.343 188.918 238.973 188.496 239.184" fill="white"/>
<path d="M185.856 244.411L185.962 242.563L208.032 243.355C208.032 243.355 209.035 243.831 208.93 244.517L185.856 244.411Z" fill="#263238"/>
<path d="M197.261 237.706C197.261 237.811 196.68 237.864 196.152 238.234C195.571 238.603 195.307 239.079 195.202 239.026C195.096 239.026 195.254 238.339 195.941 237.917C196.627 237.495 197.314 237.6 197.261 237.706Z" fill="#263238"/>
<path d="M199.69 238.709C199.69 238.815 199.214 239.026 198.845 239.501C198.422 239.976 198.37 240.452 198.211 240.452C198.106 240.452 198.053 239.818 198.528 239.237C199.003 238.656 199.69 238.604 199.69 238.709Z" fill="#263238"/>
<path d="M201.062 241.613C200.957 241.613 200.798 241.085 201.115 240.451C201.379 239.818 201.96 239.607 201.96 239.712C202.013 239.818 201.696 240.135 201.432 240.663C201.221 241.138 201.168 241.613 201.062 241.613Z" fill="#263238"/>
<path d="M196.627 43.2434C197.208 41.765 196.522 39.9698 195.202 39.0194C193.934 38.069 192.192 37.8578 190.608 38.1218C189.024 38.3858 187.546 39.0194 186.12 39.7058C184.8 38.3858 182.688 37.8578 180.946 38.4386C179.15 39.0194 177.778 40.6562 177.514 42.5042C176.405 42.2402 175.085 42.6098 174.293 43.4546C173.501 44.2994 173.237 45.6194 173.659 46.7282L180.787 49.2098L188.602 62.9378C190.872 64.8914 194.621 64.8386 196.838 62.8322C199.056 60.8258 199.478 57.1298 197.789 54.6482C198.211 54.2786 198.581 53.8034 198.898 53.2754C200.112 52.5362 201.115 51.3218 201.432 49.8962C202.013 46.9394 199.69 43.5602 196.627 43.2434Z" fill="#263238"/>
<path d="M191.875 71.8083C191.453 69.5907 191.136 68.0595 191.136 68.0595C191.136 68.0595 195.36 66.4227 195.043 60.5619C194.885 57.6579 193.776 53.0115 192.773 49.2627C191.822 45.8835 188.707 42.1875 185.381 43.2435L175.349 48.1539C174.346 48.4707 174.187 49.4211 174.398 50.4771V51.0051L178.306 67.2147L179.942 74.4483C180.682 77.5107 183.638 79.5171 186.754 79.0947C190.238 78.5667 192.562 75.2403 191.875 71.8083Z" fill="#FFBE9D"/>
<path d="M192.667 53.1699C192.773 53.5395 192.509 53.9619 192.139 54.0675C191.717 54.1731 191.347 53.9619 191.242 53.5923C191.136 53.2227 191.4 52.8003 191.77 52.6947C192.192 52.5891 192.614 52.8003 192.667 53.1699Z" fill="#263238"/>
<path d="M192.245 52.0612C192.192 52.1668 191.558 51.9028 190.766 52.0612C189.974 52.2196 189.499 52.7476 189.394 52.642C189.341 52.5892 189.394 52.4308 189.605 52.1668C189.816 51.9556 190.186 51.6916 190.714 51.586C191.189 51.4804 191.664 51.586 191.928 51.6916C192.192 51.85 192.298 52.0084 192.245 52.0612Z" fill="#263238"/>
<path d="M185.064 54.9123C185.17 55.2819 184.906 55.7043 184.536 55.8099C184.114 55.9155 183.744 55.7043 183.638 55.3347C183.533 54.9651 183.797 54.5427 184.166 54.4371C184.536 54.3315 184.958 54.5427 185.064 54.9123Z" fill="#263238"/>
<path d="M184.642 53.9091C184.589 54.0147 183.955 53.7507 183.163 53.9091C182.371 54.0675 181.896 54.5955 181.79 54.4899C181.738 54.4371 181.79 54.2787 182.002 54.0147C182.213 53.8035 182.582 53.5395 183.058 53.4339C183.533 53.3283 184.008 53.4339 184.272 53.5395C184.589 53.6979 184.694 53.8563 184.642 53.9091Z" fill="#263238"/>
<path d="M188.654 58.8723C188.654 58.8195 189.13 58.6611 189.869 58.3971C190.08 58.3443 190.238 58.2387 190.238 58.1331C190.238 57.9747 190.133 57.7635 189.974 57.5523C189.71 57.1299 189.394 56.6547 189.077 56.1267C187.81 54.1203 186.806 52.4835 186.912 52.4307C187.018 52.3779 188.074 53.9619 189.394 55.9683C189.71 56.4435 189.974 56.9187 190.291 57.3939C190.397 57.6051 190.608 57.8163 190.555 58.1331C190.555 58.2915 190.397 58.4499 190.291 58.5027C190.186 58.5555 190.08 58.6083 189.974 58.6083C189.13 58.8195 188.654 58.9251 188.654 58.8723Z" fill="#263238"/>
<path d="M191.136 68.0594C191.136 68.0594 187.387 69.1154 183.11 67.637C183.11 67.637 185.856 71.2273 191.453 69.5378L191.136 68.0594Z" fill="#EB996E"/>
<path d="M184.8 52.8001C184.747 53.0113 183.955 53.0113 183.005 53.2225C182.054 53.4337 181.368 53.8033 181.21 53.5921C181.157 53.4865 181.262 53.2753 181.526 53.0641C181.79 52.8001 182.266 52.5361 182.794 52.4305C183.322 52.3249 183.85 52.3249 184.219 52.4305C184.642 52.5361 184.853 52.6945 184.8 52.8001Z" fill="#263238"/>
<path d="M191.981 49.5793C191.875 49.7905 191.189 49.7377 190.397 49.8961C189.605 50.0017 189.024 50.3185 188.813 50.1601C188.707 50.1073 188.813 49.8961 189.024 49.6321C189.288 49.4209 189.71 49.1569 190.238 49.0513C190.766 48.9457 191.242 48.9985 191.558 49.1569C191.875 49.3153 192.034 49.4737 191.981 49.5793Z" fill="#263238"/>
<path d="M177.778 44.405C177.989 45.5666 178.781 46.5698 179.784 47.0978C180.787 47.6258 182.054 47.7314 183.163 47.2562C184.008 46.9394 184.853 46.3058 185.698 46.5698C186.595 46.8866 186.859 48.101 187.704 48.5234C188.866 49.2098 190.291 48.0482 191.664 48.1538C192.72 48.2594 193.512 49.0514 194.357 49.685C195.149 50.3186 196.31 50.8994 197.208 50.3714C196.944 49.4738 196.733 48.629 196.258 47.837C195.835 47.045 195.149 46.3586 194.304 45.989C193.829 45.8306 193.354 45.725 192.878 45.5138C191.928 45.0386 191.506 43.9298 190.819 43.085C189.922 42.029 188.496 41.4482 187.123 41.6066C185.962 41.7122 184.906 42.293 183.744 42.2402C182.899 42.1874 182.107 41.8178 181.21 41.8178C179.573 41.8706 178.306 43.2962 177.408 44.669" fill="#263238"/>
<path d="M183.322 45.6195C182.582 45.5667 180.998 45.4083 180.523 44.8803C179.414 43.7187 177.778 43.0851 176.299 43.5075C174.821 43.8771 173.606 45.3555 173.659 47.0451C171.864 47.4147 170.333 48.9459 169.805 50.8467C169.277 52.7475 169.805 54.9651 171.125 56.3907C171.442 56.7603 171.97 57.6579 171.97 57.6579C171.97 57.6579 171.283 58.5027 171.019 59.0835C169.805 61.7763 173.078 62.7795 173.078 62.7795C173.078 64.5747 174.768 64.5747 175.824 64.5747C176.827 64.5747 177.461 67.4259 178.306 67.2675L177.461 58.5027C177.566 58.5555 177.672 58.5555 177.83 58.5555C179.837 58.6083 179.309 54.8067 178.675 53.8035C179.256 53.0643 179.784 52.2723 180.154 51.3747C180.523 50.4771 180.523 48.2595 180.206 47.3091C180.946 47.2035 183.691 45.6195 183.322 45.6195Z" fill="#263238"/>
<path d="M177.725 58.8723C177.408 57.6579 175.93 57.1299 174.979 57.9747C174.451 58.4499 174.187 59.1891 174.504 60.4563C175.349 63.8355 178.57 62.3043 178.57 62.1987C178.57 62.1459 178.094 60.2979 177.725 58.8723Z" fill="#FFBE9D"/>
<path d="M177.25 61.1954C177.25 61.1954 177.197 61.2482 177.091 61.301C176.986 61.3538 176.827 61.4594 176.669 61.4066C176.299 61.3538 175.824 60.8786 175.666 60.245C175.56 59.9282 175.56 59.6114 175.613 59.3474C175.666 59.0834 175.771 58.8722 175.93 58.7666C176.088 58.661 176.246 58.7666 176.299 58.8194C176.352 58.925 176.352 58.9778 176.405 58.9778C176.405 58.9778 176.458 58.925 176.405 58.7666C176.352 58.7138 176.299 58.6082 176.194 58.6082C176.088 58.5554 175.982 58.5554 175.824 58.6082C175.56 58.7138 175.402 58.9778 175.349 59.2946C175.296 59.6114 175.296 59.9282 175.402 60.2978C175.613 60.9842 176.088 61.5122 176.616 61.565C176.88 61.565 177.038 61.4594 177.144 61.3538C177.25 61.2482 177.25 61.1954 177.25 61.1954Z" fill="#EB996E"/>
<path d="M195.994 54.1201C195.994 54.1201 196.31 53.9089 196.733 53.3281C197.155 52.8001 197.683 51.9025 197.789 50.6881C197.842 50.1073 197.842 49.4209 197.578 48.7345C197.366 48.0481 196.997 47.3617 196.363 46.8337C195.202 45.7777 193.248 45.2497 191.506 45.8833C191.347 45.9361 191.189 45.9889 191.03 46.0945C190.872 46.1473 190.766 46.2529 190.608 46.3057L190.397 46.4113V46.2001C190.397 45.7777 190.238 45.4081 189.974 45.0913C189.71 44.7745 189.341 44.5633 189.024 44.4049C188.285 44.0881 187.493 44.0881 186.754 44.2465C185.275 44.5633 184.061 45.2497 182.899 45.3553C181.738 45.5137 180.787 45.1969 180.259 44.8273C179.995 44.6161 179.837 44.4577 179.731 44.2993C179.626 44.1409 179.626 44.0881 179.626 44.0881C179.678 44.0881 179.784 44.4049 180.312 44.7745C180.84 45.1441 181.738 45.3553 182.846 45.1969C183.374 45.0913 184.008 44.9329 184.642 44.6689C185.275 44.4577 185.962 44.1409 186.701 43.9825C187.07 43.8769 187.493 43.8241 187.915 43.8769C188.338 43.8769 188.76 43.9825 189.13 44.1409C189.552 44.2993 189.922 44.5633 190.186 44.8801C190.502 45.1969 190.661 45.6721 190.661 46.1473L190.45 46.0417C190.608 45.9361 190.714 45.8833 190.872 45.7777C191.03 45.7249 191.189 45.6193 191.347 45.5665C193.195 44.9329 195.254 45.4609 196.469 46.5697C197.102 47.1505 197.525 47.8369 197.736 48.5761C197.947 49.3153 198 50.0017 197.894 50.6353C197.736 51.9025 197.208 52.8001 196.733 53.3281C196.522 53.5921 196.31 53.7505 196.152 53.8561C196.046 54.1201 195.994 54.1729 195.994 54.1201Z" fill="#455A64"/>
<path d="M195.307 42.1873C195.307 42.2401 194.938 41.9233 194.198 41.8177C193.829 41.7649 193.406 41.7649 192.878 41.9233C192.403 42.0817 191.875 42.3985 191.558 42.8737L191.453 43.0849L191.347 42.8737C190.925 41.7121 189.658 40.6561 188.126 40.4977C186.965 40.3393 185.909 40.8673 185.011 41.3953C184.114 41.9233 183.322 42.3985 182.582 42.6625C181.843 42.9265 181.157 42.9793 180.734 42.8737C180.523 42.8209 180.365 42.7681 180.259 42.7153C180.154 42.6625 180.101 42.6625 180.101 42.6097C180.101 42.6097 180.312 42.6625 180.787 42.7153C181.21 42.7681 181.843 42.7153 182.582 42.3985C183.322 42.1345 184.061 41.6065 184.958 41.0785C185.381 40.8145 185.909 40.5505 186.437 40.3393C186.965 40.1281 187.598 40.0225 188.232 40.1281C189.869 40.2865 191.189 41.5009 191.664 42.7153H191.453C191.875 42.1873 192.403 41.8177 192.931 41.7121C193.459 41.5537 193.934 41.5537 194.304 41.6593C194.674 41.7121 194.938 41.8705 195.149 41.9761C195.202 42.1345 195.307 42.1873 195.307 42.1873Z" fill="#455A64"/>
<path d="M188.338 60.4562C188.074 60.245 187.757 60.1394 187.387 60.1922C187.07 60.245 186.701 60.509 186.49 60.8258C186.49 60.8258 186.49 60.8786 186.437 60.8786C186.384 60.9842 186.331 61.1426 186.331 61.301C186.384 61.6178 186.595 61.8818 186.859 62.0402C187.282 62.2514 187.915 62.1986 188.232 61.829C188.654 61.4594 188.707 60.773 188.338 60.4562Z" fill="#FFB800"/>
<path d="M188.602 62.0931C188.549 62.0931 188.496 61.9347 188.39 61.7235C188.232 61.5123 188.021 61.2483 187.651 61.0899C187.282 60.9315 186.912 60.9315 186.648 60.9843C186.384 61.0371 186.226 61.0899 186.226 61.0371C186.226 60.9843 186.331 60.8787 186.595 60.7731C186.859 60.6675 187.334 60.6675 187.757 60.8259C188.179 61.0371 188.443 61.3539 188.549 61.6707C188.654 61.8819 188.654 62.0931 188.602 62.0931Z" fill="#263238"/>
<path d="M177.83 62.7266C177.83 62.7266 177.989 62.9906 177.778 63.413C177.672 63.6242 177.514 63.8354 177.197 63.941C176.933 64.0466 176.563 63.9938 176.246 63.8354C175.982 63.677 175.771 63.3602 175.718 63.0434C175.718 62.7266 175.824 62.4626 175.93 62.3042C176.194 61.9346 176.51 61.9346 176.51 61.9874C176.51 62.0402 176.299 62.093 176.088 62.4098C175.982 62.5682 175.93 62.7794 175.982 62.9906C175.982 63.2018 176.141 63.413 176.405 63.5714C176.616 63.7298 176.88 63.7298 177.091 63.677C177.302 63.6242 177.461 63.4658 177.566 63.3074C177.83 62.9906 177.778 62.7266 177.83 62.7266Z" fill="#FFB800"/>
<path d="M176.035 62.5154C176.088 62.5154 176.035 62.6738 175.771 62.8322C175.666 62.885 175.507 62.9378 175.349 62.885C175.19 62.8322 175.032 62.7266 174.926 62.5154C174.821 62.357 174.821 62.1458 174.874 61.9874C174.926 61.829 175.032 61.7234 175.138 61.6178C175.349 61.5122 175.507 61.565 175.507 61.565C175.507 61.6178 175.402 61.6178 175.243 61.7762C175.085 61.8818 175.032 62.1458 175.138 62.4098C175.243 62.6738 175.507 62.7266 175.718 62.6738C175.93 62.621 176.035 62.5154 176.035 62.5154Z" fill="#FFB800"/>
<path d="M181.843 109.455C181.843 109.455 194.938 110.194 202.646 110.299C208.613 110.352 211.306 108.768 212.52 104.914C213.523 101.693 211.358 95.5154 211.358 95.5154C207.293 95.5154 204.811 96.0962 202.224 97.3106L202.91 100.162L181.843 101.957V109.455Z" fill="#FFBE9D"/>
<path d="M207.293 103.119C207.24 103.171 206.606 102.01 205.339 101.165C204.072 100.267 202.752 100.109 202.805 100.056C202.805 100.003 203.122 100.003 203.65 100.109C204.178 100.215 204.864 100.479 205.498 100.954C206.184 101.429 206.659 101.957 206.923 102.379C207.187 102.802 207.293 103.119 207.293 103.119Z" fill="#EB996E"/>
<path d="M177.038 97.2579C177.038 97.2579 172.973 98.2083 170.016 100.215L173.184 108.821C174.24 111.619 177.461 113.045 180.048 111.567C184.008 109.296 185.434 102.643 185.434 102.643L189.816 83.6883L182.582 79.1475L177.038 97.2579Z" fill="#FFBE9D"/>
<path d="M182.582 79.1473L182.899 72.9169L181.262 66.5808C181.157 66.2112 181.104 65.7888 181.421 65.5776C181.738 65.3664 182.16 65.3664 182.371 65.6304C182.794 66.1056 184.906 71.6496 184.906 71.6496C184.906 71.6496 188.126 69.7488 188.654 69.6432C189.235 69.5376 189.922 71.28 189.974 71.3856C190.027 71.544 189.974 72.5472 189.974 72.5472C189.974 72.5472 191.981 72.6 192.139 72.864C192.298 73.1281 192.35 74.5536 192.35 74.5536C192.35 74.5536 193.195 74.8176 193.301 75.4512C193.459 76.0848 193.723 77.1409 193.301 77.3521C192.931 77.5633 192.086 78.0385 192.086 78.0385C192.086 78.0385 191.77 81.2593 191.664 81.5761C191.558 81.8929 189.71 83.6881 189.71 83.6881L182.582 79.1473Z" fill="#FFBE9D"/>
<path d="M175.824 111.672C175.824 111.672 176.035 111.778 176.405 111.936C176.827 112.095 177.461 112.2 178.253 112.095C179.045 111.989 180.048 111.619 180.946 110.827C181.843 110.035 182.741 108.979 183.48 107.659C183.85 106.973 184.166 106.287 184.483 105.495C184.747 104.703 184.958 103.858 185.17 102.96C185.592 101.165 186.014 99.2642 186.49 97.205C187.44 93.1394 188.496 88.5986 189.658 83.6882V83.6354L189.71 83.5826C190.08 83.213 190.45 82.8434 190.819 82.4738C190.978 82.2626 191.189 82.1042 191.347 81.893C191.453 81.7874 191.506 81.6818 191.611 81.5762C191.664 81.5234 191.664 81.365 191.717 81.2594C191.875 80.2034 191.981 79.0946 192.086 77.9858V77.933L192.139 77.8802C192.456 77.669 192.826 77.5106 193.142 77.2994C193.195 77.2466 193.354 77.1938 193.354 77.141C193.406 77.0882 193.459 77.0354 193.459 76.9826C193.512 76.8242 193.459 76.613 193.459 76.4546C193.406 76.085 193.301 75.6626 193.248 75.293C193.142 74.9762 192.773 74.765 192.403 74.6066L192.298 74.5538V74.4482C192.298 74.1314 192.245 73.8146 192.245 73.4978C192.245 73.3394 192.192 73.181 192.192 73.0226C192.192 72.9698 192.139 72.8642 192.139 72.8114C192.139 72.7586 192.139 72.8114 192.086 72.7586C192.034 72.7586 192.034 72.7058 191.981 72.7058C191.4 72.5474 190.714 72.4946 190.027 72.4946H189.869V72.3362C189.869 72.0194 189.869 71.6498 189.869 71.2802C189.869 71.1746 189.816 71.069 189.763 70.9106C189.71 70.805 189.658 70.6466 189.605 70.541C189.499 70.277 189.341 70.0658 189.182 69.8546C189.077 69.749 189.024 69.6434 188.918 69.5906C188.813 69.5378 188.76 69.5378 188.654 69.5378C188.39 69.6434 188.179 69.749 187.915 69.8546C186.912 70.3826 185.962 70.9106 185.011 71.4914L184.853 71.597L184.8 71.4386C184.325 70.1714 183.797 68.957 183.322 67.7426C183.058 67.109 182.846 66.5282 182.582 65.9474C182.477 65.6306 182.266 65.4722 182.002 65.4194C181.738 65.3666 181.421 65.4194 181.315 65.6834C181.262 65.789 181.21 65.9474 181.21 66.053C181.21 66.1586 181.262 66.3698 181.315 66.4754C181.421 66.7922 181.474 67.109 181.579 67.373C181.738 67.9538 181.896 68.5874 182.054 69.1682C182.371 70.3298 182.688 71.4914 182.952 72.653C182.846 74.8178 182.741 76.877 182.635 78.8834C180.629 85.3778 178.992 90.7634 177.83 94.5122C177.25 96.3602 176.774 97.8386 176.458 98.8946C176.299 99.3698 176.194 99.7922 176.088 100.056C175.982 100.32 175.93 100.426 175.93 100.426C175.93 100.426 175.982 100.267 176.035 100.003C176.088 99.7394 176.246 99.3698 176.352 98.8418C176.669 97.8386 177.091 96.3602 177.672 94.4594C178.834 90.6578 180.418 85.2722 182.371 78.7778V78.8306C182.477 76.8242 182.53 74.765 182.635 72.6002V72.653C182.318 71.4914 182.002 70.3298 181.738 69.1682C181.579 68.5874 181.421 67.9538 181.262 67.373C181.157 67.0562 181.104 66.7922 180.998 66.4754C180.946 66.317 180.893 66.2114 180.893 66.0002C180.893 65.8418 180.893 65.6306 180.998 65.4722C181.104 65.3138 181.262 65.1554 181.421 65.1026C181.632 65.0498 181.79 65.0498 181.949 65.1026C182.107 65.1554 182.318 65.2082 182.424 65.3666C182.582 65.4722 182.635 65.6834 182.688 65.8418C182.952 66.4226 183.163 67.0562 183.427 67.637C183.902 68.8514 184.43 70.0658 184.906 71.333L184.694 71.2802C185.645 70.6994 186.595 70.1714 187.598 69.6434C187.862 69.5378 188.074 69.3794 188.39 69.2738C188.443 69.2738 188.549 69.221 188.654 69.221C188.76 69.221 188.866 69.2738 188.918 69.3266C189.077 69.4322 189.182 69.5378 189.235 69.6434C189.394 69.8546 189.552 70.1186 189.71 70.3826C189.763 70.4882 189.816 70.6466 189.922 70.7522C189.974 70.9106 190.08 71.0162 190.08 71.1746C190.08 71.5442 190.08 71.9138 190.08 72.2306L189.922 72.0722C190.608 72.125 191.242 72.125 191.928 72.2834C191.981 72.2834 192.034 72.3362 192.086 72.3362C192.139 72.3362 192.192 72.4418 192.245 72.4946C192.298 72.6002 192.298 72.653 192.35 72.7586C192.403 72.917 192.403 73.0754 192.403 73.2338C192.456 73.5506 192.456 73.8674 192.456 74.1842L192.35 74.0786C192.773 74.237 193.142 74.4482 193.354 74.9234C193.459 75.3458 193.565 75.7154 193.618 76.1378C193.618 76.349 193.67 76.5602 193.618 76.7714C193.618 76.877 193.512 77.0354 193.406 77.0882C193.301 77.1938 193.248 77.1938 193.142 77.2466C192.826 77.4578 192.456 77.6162 192.139 77.8274L192.192 77.7218C192.086 78.8306 191.981 79.8866 191.822 80.9954L191.77 81.2066C191.77 81.2594 191.717 81.365 191.664 81.4178C191.558 81.5234 191.506 81.629 191.4 81.7346C191.242 81.9458 191.03 82.1042 190.872 82.3154C190.502 82.685 190.133 83.0546 189.763 83.4242L189.816 83.3714C188.654 88.2818 187.598 92.8226 186.595 96.8882C186.12 98.9474 185.645 100.848 185.222 102.591C185.011 103.488 184.8 104.333 184.536 105.125C184.272 105.917 183.902 106.656 183.533 107.343C182.794 108.663 181.843 109.719 180.946 110.563C179.995 111.355 178.992 111.725 178.147 111.778C177.302 111.883 176.669 111.725 176.246 111.567C176.035 111.514 175.877 111.408 175.824 111.355C175.877 111.672 175.824 111.672 175.824 111.672Z" fill="#EB996E"/>
<path d="M190.027 72.4946C190.027 72.5474 189.869 72.5474 189.552 72.5474C189.288 72.5474 188.918 72.5474 188.496 72.653C188.126 72.7586 187.81 72.9698 187.598 73.1282C187.387 73.2866 187.334 73.445 187.282 73.445C187.229 73.445 187.282 73.2338 187.44 73.0226C187.598 72.7586 187.968 72.4946 188.39 72.389C188.813 72.2834 189.235 72.2834 189.499 72.3362C189.869 72.4418 190.027 72.4946 190.027 72.4946Z" fill="#EB996E"/>
<path d="M188.496 72.6C188.443 72.5472 188.443 72.3888 188.496 72.2304C188.549 72.072 188.654 71.9136 188.76 71.9664C188.813 72.0192 188.813 72.1776 188.76 72.336C188.654 72.4944 188.549 72.6 188.496 72.6Z" fill="#EB996E"/>
<path d="M192.509 74.5009C192.509 74.6065 191.822 74.6593 190.925 74.7121C190.502 74.7649 190.186 74.9233 190.027 75.1345C189.869 75.3457 189.922 75.5041 189.869 75.5569C189.869 75.5569 189.71 75.3985 189.816 75.0817C189.869 74.9233 190.027 74.7649 190.186 74.6593C190.397 74.5537 190.608 74.5009 190.819 74.4481C191.77 74.3953 192.509 74.4481 192.509 74.5009Z" fill="#EB996E"/>
<path d="M192.139 76.4016C192.192 76.4016 192.245 76.7712 192.245 77.2992C192.245 77.7744 192.139 78.144 192.086 78.144C192.034 78.144 191.981 77.7744 191.981 77.2464C191.981 76.7712 192.086 76.4016 192.139 76.4016Z" fill="#EB996E"/>
<path d="M194.357 90.605L194.832 88.9682C194.938 88.6514 195.36 88.5458 195.571 88.757L196.205 89.3906L196.574 87.8594C196.68 87.437 197.208 87.3842 197.419 87.7538L198.264 89.549L194.357 90.605Z" fill="white"/>
<path d="M198.264 90.3409C198.264 90.3937 197.472 90.7105 196.416 90.9217C195.36 91.1857 194.515 91.3441 194.462 91.2385C194.462 91.1857 195.254 90.8689 196.31 90.6577C197.366 90.3937 198.211 90.2353 198.264 90.3409Z" fill="white"/>
<path d="M166.848 81.312C166.848 81.312 166.637 81.5232 166.373 81.9456C166.109 82.368 165.792 83.0544 165.634 83.952C165.475 84.8496 165.475 85.9056 165.528 87.12C165.581 88.3344 165.686 89.6016 165.845 90.9744C166.109 93.72 166.584 96.2016 166.954 97.944C167.165 98.8416 167.323 99.528 167.429 100.056C167.482 100.267 167.534 100.478 167.587 100.637C167.64 100.742 167.64 100.848 167.64 100.848C167.64 100.848 167.64 100.795 167.587 100.637C167.534 100.478 167.482 100.267 167.429 100.056C167.323 99.5808 167.112 98.8416 166.901 97.9968C166.478 96.2544 166.056 93.7728 165.739 91.0272C165.581 89.6544 165.475 88.3344 165.422 87.12C165.37 85.9056 165.37 84.8496 165.528 83.952C165.686 83.0544 166.003 82.368 166.267 81.9456C166.637 81.4704 166.848 81.312 166.848 81.312Z" fill="white"/>
<path d="M177.936 74.1314C177.936 74.1314 177.883 74.1314 177.83 74.1842C177.725 74.237 177.619 74.2898 177.461 74.3426C177.144 74.501 176.722 74.7122 176.194 74.9762C175.138 75.557 173.712 76.4018 172.234 77.4578C170.702 78.5138 169.382 79.4642 168.432 80.1506C168.01 80.4674 167.587 80.7314 167.27 80.9954C167.165 81.0482 167.059 81.1538 166.954 81.2066C166.901 81.2594 166.848 81.2594 166.848 81.2594C166.848 81.2594 166.901 81.2066 166.954 81.1538C167.059 81.101 167.165 80.9954 167.27 80.9426C167.587 80.6786 167.957 80.4146 168.432 80.0978C169.382 79.3586 170.702 78.4082 172.234 77.3522C173.765 76.2962 175.138 75.4514 176.246 74.8706C176.774 74.6066 177.197 74.3954 177.514 74.237C177.619 74.1842 177.778 74.1314 177.883 74.0786C177.936 74.1314 177.936 74.1314 177.936 74.1314Z" fill="white"/>
<path d="M203.122 77.5632C203.122 77.5632 203.069 77.5633 203.016 77.5105C202.963 77.4577 202.858 77.352 202.805 77.2992C202.594 77.1408 202.277 76.8769 201.854 76.6129C201.062 76.0849 199.848 75.4512 198.475 74.8704C197.102 74.3424 195.782 73.92 194.832 73.656C194.357 73.5504 193.987 73.4448 193.723 73.3392C193.618 73.2864 193.512 73.2864 193.406 73.2864C193.354 73.2864 193.301 73.2336 193.301 73.2336C193.301 73.2336 193.354 73.2336 193.406 73.2336C193.512 73.2336 193.618 73.2864 193.723 73.2864C193.987 73.3392 194.357 73.4448 194.832 73.5504C195.782 73.8144 197.102 74.184 198.475 74.712C199.848 75.2928 201.062 75.8736 201.854 76.4545C202.752 77.0881 203.122 77.5632 203.122 77.5632Z" fill="white"/>
<path d="M178.094 117.85C178.094 117.85 178.042 117.85 177.883 117.797C177.778 117.744 177.566 117.639 177.355 117.533C176.933 117.269 176.352 116.741 176.194 116.002C176.035 115.263 176.194 114.523 176.405 114.048C176.51 113.837 176.616 113.626 176.722 113.52C176.827 113.415 176.88 113.362 176.88 113.362C176.88 113.362 176.669 113.626 176.51 114.048C176.299 114.471 176.194 115.21 176.352 115.949C176.51 116.688 177.038 117.163 177.461 117.48C177.83 117.744 178.094 117.85 178.094 117.85Z" fill="white"/>
<path d="M176.405 112.147C176.458 112.147 176.563 112.411 176.669 112.834C176.774 113.203 176.827 113.52 176.827 113.52C176.774 113.52 176.669 113.256 176.563 112.834C176.458 112.464 176.405 112.147 176.405 112.147Z" fill="white"/>
<path d="M183.586 230.525L199.69 230.419L199.373 174.768L199.214 118.114L177.408 117.85L173.501 125.242C171.917 128.198 170.861 131.472 170.491 134.798C170.227 137.333 172.128 145.675 172.814 147.84L178.834 166.901L183.586 230.525Z" fill="#263238"/>
<path d="M203.966 118.219L221.654 166.478C223.714 172.92 223.027 179.361 219.49 185.328L198.95 225.456L187.387 210.989L204.6 175.085L189.394 150.48L191.928 118.272L199.056 118.166L203.966 118.219Z" fill="#263238"/>
<path d="M197.736 134.376C197.736 134.376 197.736 134.482 197.736 134.64C197.736 134.798 197.736 135.062 197.789 135.379C197.842 136.013 197.894 136.963 197.947 138.178C198.053 140.606 198.211 144.144 198.422 148.474C198.634 152.803 198.845 157.978 199.109 163.733C199.214 166.584 199.373 169.594 199.531 172.762C199.637 174.346 199.584 175.93 199.584 177.514C199.584 179.15 199.584 180.787 199.584 182.424C199.584 195.677 199.637 207.715 199.637 216.427C199.637 220.757 199.637 224.294 199.637 226.723C199.637 227.938 199.637 228.888 199.637 229.522C199.637 229.838 199.637 230.05 199.637 230.261C199.637 230.419 199.637 230.525 199.637 230.525C199.637 230.525 199.637 230.419 199.637 230.261C199.637 230.102 199.637 229.838 199.637 229.522C199.637 228.888 199.637 227.938 199.584 226.723C199.584 224.294 199.531 220.757 199.531 216.427C199.478 207.715 199.426 195.73 199.373 182.424C199.373 180.787 199.373 179.15 199.373 177.514C199.373 175.877 199.426 174.293 199.32 172.762C199.162 169.646 199.056 166.637 198.95 163.733C198.686 157.978 198.475 152.803 198.317 148.474C198.158 144.144 198 140.606 197.894 138.178C197.842 136.963 197.842 136.013 197.789 135.379C197.789 135.062 197.789 134.851 197.789 134.64C197.736 134.429 197.736 134.376 197.736 134.376Z" fill="#455A64"/>
<path d="M197.366 119.17C197.366 119.17 197.419 119.328 197.472 119.698C197.525 120.014 197.578 120.542 197.683 121.123C197.842 122.338 197.947 124.027 198.053 125.928C198.158 127.829 198.158 129.519 198.106 130.733C198.106 131.367 198.053 131.842 198.053 132.211C198.053 132.528 198 132.739 198 132.739C197.947 132.739 197.947 132 197.947 130.733C197.947 129.519 197.894 127.829 197.789 125.928C197.683 124.08 197.578 122.39 197.472 121.123C197.366 119.909 197.314 119.17 197.366 119.17Z" fill="#455A64"/>
<path d="M193.829 120.225C193.882 120.278 193.565 120.384 193.459 120.806C193.406 121.017 193.459 121.281 193.67 121.44C193.882 121.598 194.198 121.704 194.462 121.598C194.726 121.493 194.885 121.176 194.885 120.912C194.885 120.648 194.726 120.437 194.515 120.331C194.146 120.12 193.829 120.278 193.829 120.225C193.829 120.225 193.882 120.173 194.04 120.12C194.198 120.067 194.41 120.067 194.621 120.173C194.832 120.278 195.096 120.542 195.149 120.912C195.149 121.281 194.99 121.704 194.621 121.862C194.198 122.021 193.776 121.915 193.565 121.651C193.301 121.387 193.248 121.017 193.354 120.806C193.406 120.542 193.565 120.384 193.67 120.331C193.723 120.225 193.829 120.225 193.829 120.225Z" fill="#455A64"/>
<path d="M185.381 119.275C185.381 119.275 185.486 119.434 185.539 119.803C185.592 120.12 185.645 120.648 185.592 121.229C185.539 121.81 185.328 122.549 184.958 123.288C184.589 124.027 184.008 124.714 183.269 125.294C182.477 125.822 181.632 126.139 180.84 126.245C180.048 126.35 179.309 126.298 178.728 126.192C178.147 126.034 177.672 125.875 177.408 125.664C177.091 125.506 176.986 125.4 176.986 125.347C176.986 125.294 177.619 125.717 178.781 125.981C179.942 126.192 181.685 126.086 183.163 125.083C184.642 124.027 185.275 122.39 185.434 121.229C185.539 120.014 185.275 119.275 185.381 119.275Z" fill="#455A64"/>
<path d="M206.078 123.922C206.078 123.974 205.656 123.974 205.075 123.816C204.442 123.658 203.65 123.235 203.016 122.496C202.383 121.757 202.013 120.912 201.907 120.278C201.802 119.645 201.855 119.275 201.907 119.275C201.96 119.275 201.96 119.645 202.119 120.278C202.277 120.859 202.647 121.651 203.28 122.338C203.914 123.024 204.653 123.446 205.234 123.658C205.709 123.816 206.078 123.869 206.078 123.922Z" fill="#455A64"/>
<path d="M212.362 175.93C212.362 175.93 212.045 176.299 211.411 176.669C211.094 176.88 210.672 177.091 210.197 177.197C209.722 177.302 209.141 177.355 208.56 177.144C207.451 176.774 206.712 175.93 206.29 175.349C205.867 174.768 205.656 174.346 205.656 174.346C205.709 174.346 205.973 174.662 206.448 175.243C206.923 175.771 207.61 176.563 208.613 176.88C209.669 177.25 210.619 176.827 211.253 176.51C211.992 176.141 212.362 175.877 212.362 175.93Z" fill="#455A64"/>
<path d="M208.349 178.992C208.296 179.045 207.557 178.094 206.659 176.88C205.814 175.666 205.181 174.662 205.234 174.61C205.286 174.557 206.026 175.507 206.923 176.722C207.768 177.936 208.402 178.939 208.349 178.992Z" fill="#455A64"/>
<path d="M181.262 136.224C181.21 136.277 180.998 135.96 180.84 135.538C180.682 135.115 180.629 134.799 180.682 134.746C180.734 134.693 180.946 135.01 181.104 135.432C181.262 135.855 181.368 136.224 181.262 136.224Z" fill="#FAFAFA"/>
<path d="M191.506 137.703C191.453 137.703 191.347 137.439 191.347 137.122C191.347 136.805 191.4 136.541 191.506 136.541C191.558 136.541 191.664 136.805 191.664 137.122C191.611 137.439 191.558 137.703 191.506 137.703Z" fill="#FAFAFA"/>
<path d="M187.282 143.246C187.229 143.246 187.123 142.93 187.07 142.507C187.018 142.085 187.07 141.768 187.176 141.768C187.229 141.768 187.334 142.085 187.387 142.507C187.387 142.93 187.387 143.246 187.282 143.246Z" fill="#FAFAFA"/>
<path d="M179.626 147.312C179.573 147.365 179.362 147.154 179.045 146.942C178.781 146.731 178.517 146.573 178.517 146.52C178.517 146.467 178.886 146.467 179.203 146.731C179.52 146.995 179.678 147.312 179.626 147.312Z" fill="#FAFAFA"/>
<path d="M193.142 152.486C193.09 152.434 193.142 152.222 193.301 151.958C193.459 151.694 193.67 151.536 193.723 151.589C193.776 151.642 193.723 151.853 193.565 152.117C193.406 152.381 193.195 152.539 193.142 152.486Z" fill="#FAFAFA"/>
<path d="M184.8 153.965C184.747 153.965 184.642 153.542 184.642 153.014C184.642 152.486 184.694 152.064 184.8 152.064C184.853 152.064 184.958 152.486 184.958 153.014C184.906 153.542 184.853 153.965 184.8 153.965Z" fill="#FAFAFA"/>
<path d="M182.054 159.878C182.002 159.931 181.738 159.826 181.421 159.614C181.104 159.403 180.946 159.192 180.946 159.139C180.998 159.086 181.262 159.192 181.579 159.403C181.896 159.614 182.107 159.826 182.054 159.878Z" fill="#FAFAFA"/>
<path d="M190.502 161.938C190.555 161.99 190.344 162.149 190.133 162.254C189.869 162.36 189.658 162.413 189.658 162.307C189.605 162.254 189.816 162.096 190.027 161.99C190.291 161.885 190.502 161.885 190.502 161.938Z" fill="#FAFAFA"/>
<path d="M184.8 171.6C184.747 171.653 184.483 171.23 184.166 170.702C183.902 170.174 183.744 169.699 183.797 169.646C183.85 169.594 184.114 170.016 184.43 170.544C184.694 171.072 184.853 171.547 184.8 171.6Z" fill="#FAFAFA"/>
<path d="M194.146 170.702C194.093 170.649 194.198 170.333 194.41 169.91C194.621 169.488 194.832 169.224 194.938 169.224C194.99 169.277 194.885 169.593 194.674 170.016C194.41 170.438 194.198 170.755 194.146 170.702Z" fill="#FAFAFA"/>
<path d="M190.027 178.886C189.975 178.886 189.975 178.464 189.869 177.989C189.816 177.514 189.658 177.091 189.711 177.038C189.763 176.986 190.027 177.355 190.133 177.936C190.239 178.464 190.133 178.886 190.027 178.886Z" fill="#FAFAFA"/>
<path d="M185.645 183.533C185.592 183.586 185.328 183.374 185.064 183.11C184.8 182.794 184.642 182.53 184.694 182.477C184.747 182.424 185.011 182.635 185.275 182.899C185.539 183.216 185.698 183.48 185.645 183.533Z" fill="#FAFAFA"/>
<path d="M196.31 185.328C196.258 185.275 196.469 185.011 196.733 184.694C197.05 184.378 197.314 184.219 197.366 184.272C197.419 184.325 197.208 184.589 196.944 184.906C196.627 185.17 196.363 185.381 196.31 185.328Z" fill="#FAFAFA"/>
<path d="M190.186 192.298C190.133 192.298 190.133 191.875 190.186 191.4C190.238 190.925 190.397 190.555 190.45 190.555C190.502 190.555 190.502 190.978 190.45 191.453C190.397 191.928 190.238 192.35 190.186 192.298Z" fill="#FAFAFA"/>
<path d="M186.067 195.73C186.014 195.782 185.75 195.518 185.539 195.096C185.328 194.726 185.17 194.41 185.275 194.357C185.328 194.304 185.592 194.568 185.803 194.99C186.014 195.36 186.12 195.677 186.067 195.73Z" fill="#FAFAFA"/>
<path d="M195.994 200.006C196.046 200.059 195.782 200.323 195.413 200.587C195.043 200.851 194.674 201.01 194.674 200.957C194.621 200.904 194.885 200.64 195.254 200.376C195.571 200.112 195.941 199.954 195.994 200.006Z" fill="#FAFAFA"/>
<path d="M187.704 205.551C187.651 205.498 187.704 205.075 187.757 204.547C187.81 204.019 187.81 203.597 187.862 203.597C187.915 203.597 188.074 204.019 188.021 204.6C188.021 205.181 187.81 205.603 187.704 205.551Z" fill="#FAFAFA"/>
<path d="M191.03 213.523C190.978 213.576 190.766 213.365 190.555 213.101C190.344 212.837 190.238 212.573 190.291 212.52C190.344 212.467 190.555 212.678 190.766 212.942C190.925 213.259 191.083 213.47 191.03 213.523Z" fill="#FAFAFA"/>
<path d="M187.387 218.909C187.334 218.962 187.018 218.645 186.754 218.223C186.437 217.8 186.278 217.431 186.331 217.378C186.384 217.325 186.701 217.642 186.965 218.064C187.282 218.487 187.493 218.856 187.387 218.909Z" fill="#FAFAFA"/>
<path d="M197.366 212.203C197.314 212.15 197.314 211.992 197.366 211.781C197.472 211.57 197.578 211.411 197.63 211.464C197.683 211.517 197.683 211.675 197.63 211.886C197.525 212.045 197.419 212.203 197.366 212.203Z" fill="#FAFAFA"/>
<path d="M192.984 224.928C192.931 224.875 193.037 224.505 193.142 224.03C193.248 223.555 193.301 223.186 193.354 223.186C193.406 223.186 193.512 223.608 193.406 224.136C193.301 224.611 193.037 224.981 192.984 224.928Z" fill="#FAFAFA"/>
<path d="M195.782 143.352C195.73 143.405 195.571 143.194 195.413 142.877C195.254 142.56 195.202 142.296 195.307 142.296C195.36 142.243 195.518 142.454 195.677 142.771C195.835 143.035 195.888 143.299 195.782 143.352Z" fill="#FAFAFA"/>
<path d="M188.496 126.879C188.549 126.931 188.179 127.248 187.757 127.671C187.334 128.093 187.07 128.463 187.018 128.463C186.965 128.41 187.123 127.935 187.546 127.512C187.968 127.037 188.443 126.826 188.496 126.879Z" fill="#FAFAFA"/>
<path d="M194.99 126.667C194.938 126.667 194.779 126.35 194.621 125.981C194.462 125.611 194.251 125.347 194.304 125.294C194.357 125.242 194.674 125.453 194.832 125.875C195.043 126.298 195.096 126.667 194.99 126.667Z" fill="#FAFAFA"/>
<path d="M174.662 132.053C174.61 132 174.662 131.683 174.821 131.261C174.979 130.838 175.19 130.574 175.243 130.574C175.296 130.627 175.243 130.944 175.085 131.366C174.926 131.789 174.768 132.105 174.662 132.053Z" fill="#FAFAFA"/>
<path d="M175.349 140.025C175.296 140.078 174.979 139.92 174.662 139.656C174.346 139.392 174.134 139.128 174.187 139.075C174.24 139.022 174.557 139.181 174.874 139.445C175.138 139.709 175.402 139.973 175.349 140.025Z" fill="#FAFAFA"/>
<path d="M188.654 120.542C188.602 120.595 188.443 120.384 188.338 120.12C188.232 119.856 188.179 119.592 188.285 119.592C188.338 119.539 188.496 119.75 188.602 120.014C188.707 120.278 188.76 120.542 188.654 120.542Z" fill="#FAFAFA"/>
<path d="M201.432 124.45C201.379 124.45 201.379 124.133 201.432 123.763C201.538 123.394 201.643 123.077 201.696 123.13C201.749 123.13 201.749 123.446 201.696 123.816C201.643 124.186 201.538 124.45 201.432 124.45Z" fill="#FAFAFA"/>
<path d="M204.442 130.469C204.389 130.416 204.442 130.047 204.653 129.571C204.864 129.096 205.075 128.779 205.128 128.779C205.181 128.832 205.128 129.202 204.917 129.677C204.706 130.152 204.494 130.522 204.442 130.469Z" fill="#FAFAFA"/>
<path d="M202.33 135.379C202.277 135.432 202.013 135.062 201.749 134.587C201.485 134.112 201.379 133.69 201.432 133.637C201.485 133.584 201.749 133.954 202.013 134.429C202.224 134.904 202.382 135.326 202.33 135.379Z" fill="#FAFAFA"/>
<path d="M206.87 140.237C206.818 140.184 206.87 139.92 206.976 139.55C207.134 139.181 207.293 138.917 207.346 138.97C207.398 139.022 207.346 139.286 207.24 139.656C207.134 139.973 206.976 140.237 206.87 140.237Z" fill="#FAFAFA"/>
<path d="M202.805 144.989C202.752 145.042 202.594 144.883 202.435 144.672C202.277 144.461 202.224 144.25 202.33 144.197C202.382 144.144 202.541 144.302 202.699 144.514C202.805 144.725 202.858 144.936 202.805 144.989Z" fill="#FAFAFA"/>
<path d="M203.65 154.81C203.597 154.862 203.28 154.598 202.91 154.229C202.541 153.859 202.33 153.49 202.382 153.437C202.435 153.384 202.752 153.648 203.122 154.018C203.491 154.44 203.702 154.757 203.65 154.81Z" fill="#FAFAFA"/>
<path d="M209.035 149.16C208.982 149.213 208.666 148.949 208.402 148.579C208.085 148.21 207.926 147.84 207.979 147.787C208.032 147.734 208.349 147.998 208.613 148.368C208.877 148.79 209.088 149.16 209.035 149.16Z" fill="#FAFAFA"/>
<path d="M211.939 156.975C211.886 156.922 211.992 156.552 212.203 156.077C212.414 155.602 212.626 155.285 212.731 155.285C212.784 155.338 212.678 155.707 212.467 156.183C212.256 156.658 212.045 157.027 211.939 156.975Z" fill="#FAFAFA"/>
<path d="M205.709 163.416C205.656 163.469 205.392 163.152 205.075 162.835C204.758 162.518 204.442 162.307 204.442 162.254C204.494 162.202 204.864 162.307 205.234 162.677C205.603 162.994 205.762 163.363 205.709 163.416Z" fill="#FAFAFA"/>
<path d="M206.078 170.016C206.078 170.069 205.814 170.175 205.498 170.175C205.181 170.175 204.917 170.122 204.917 170.016C204.917 169.91 205.181 169.858 205.498 169.858C205.867 169.858 206.078 169.963 206.078 170.016Z" fill="#FAFAFA"/>
<path d="M212.52 168.168C212.467 168.115 212.573 167.798 212.678 167.376C212.784 166.954 212.837 166.584 212.89 166.584C212.942 166.584 213.048 166.954 212.942 167.429C212.837 167.904 212.573 168.221 212.52 168.168Z" fill="#FAFAFA"/>
<path d="M218.909 170.386C218.856 170.386 218.645 170.016 218.486 169.541C218.328 169.066 218.222 168.643 218.328 168.643C218.381 168.643 218.592 169.013 218.75 169.488C218.909 169.963 218.962 170.386 218.909 170.386Z" fill="#FAFAFA"/>
<path d="M217.906 179.467C217.853 179.414 218.011 178.992 218.275 178.464C218.539 177.936 218.803 177.566 218.856 177.619C218.909 177.672 218.75 178.094 218.486 178.622C218.222 179.098 217.958 179.52 217.906 179.467Z" fill="#FAFAFA"/>
<path d="M212.045 184.8C211.992 184.853 211.781 184.483 211.57 184.008C211.359 183.533 211.253 183.11 211.358 183.11C211.411 183.057 211.622 183.427 211.834 183.902C212.045 184.377 212.15 184.8 212.045 184.8Z" fill="#FAFAFA"/>
<path d="M205.603 186.859C205.603 186.912 205.392 187.018 205.128 187.018C204.864 187.018 204.653 186.965 204.653 186.859C204.653 186.754 204.864 186.701 205.128 186.701C205.392 186.701 205.603 186.807 205.603 186.859Z" fill="#FAFAFA"/>
<path d="M209.299 195.36C209.246 195.36 209.088 195.043 208.982 194.674C208.877 194.251 208.824 193.934 208.93 193.882C208.982 193.882 209.141 194.198 209.246 194.568C209.352 194.99 209.405 195.307 209.299 195.36Z" fill="#FAFAFA"/>
<path d="M204.653 192.509C204.6 192.456 204.653 192.245 204.811 191.928C204.97 191.664 205.181 191.453 205.234 191.506C205.286 191.559 205.234 191.77 205.075 192.086C204.917 192.35 204.706 192.562 204.653 192.509Z" fill="#FAFAFA"/>
<path d="M204.547 201.854C204.494 201.854 204.389 201.485 204.336 201.062C204.283 200.587 204.283 200.218 204.389 200.218C204.442 200.218 204.547 200.587 204.6 201.01C204.653 201.485 204.6 201.854 204.547 201.854Z" fill="#FAFAFA"/>
</svg>
