<svg width="83" height="83" viewBox="0 0 83 83" fill="none" xmlns="http://www.w3.org/2000/svg">
<g clip-path="url(#clip0)">
<path d="M44.63 75.0199C44.23 75.0199 43.84 74.9199 43.48 74.7099C42.74 74.2899 42.3 73.4899 42.33 72.6399L42.8 57.9099C42.82 57.3699 43.03 56.8399 43.39 56.4399L60.36 37.6999C60.81 37.2099 61.43 36.9399 62.07 36.9399C62.37 36.9399 62.68 36.9999 62.97 37.1199C63.87 37.4999 64.43 38.4199 64.36 39.3999L62.69 63.0499C62.64 63.7899 62.24 64.4499 61.61 64.8399L45.84 74.6599C45.47 74.9099 45.05 75.0199 44.63 75.0199Z" fill="#FF9900"/>
<path d="M62.07 39.2499L60.4 62.8999L44.63 72.7199L45.1 57.9899L62.07 39.2499ZM62.07 34.6499C60.8 34.6499 59.55 35.1799 58.66 36.1599L41.69 54.8999C40.96 55.7099 40.54 56.7499 40.5 57.8399L40.03 72.5699C39.98 74.2699 40.86 75.8499 42.33 76.6999C43.04 77.1099 43.83 77.3099 44.63 77.3099C45.47 77.3099 46.32 77.0799 47.06 76.6099L62.83 66.7899C64.08 66.0099 64.88 64.6799 64.99 63.2099L66.66 39.5599C66.8 37.5999 65.68 35.7699 63.88 34.9999C63.29 34.7699 62.68 34.6499 62.07 34.6499Z" fill="#182738"/>
<path d="M9.58998 39.99C8.76998 39.99 8.00998 39.5499 7.59998 38.84C7.17998 38.1 7.18998 37.1999 7.63998 36.4799L17.46 20.7099C17.85 20.0799 18.51 19.6799 19.25 19.6299L42.9 17.9599C42.95 17.9599 43.01 17.95 43.06 17.95C43.98 17.95 44.81 18.5 45.17 19.35C45.55 20.25 45.33 21.2999 44.6 21.9599L25.87 38.9199C25.47 39.2899 24.95 39.4999 24.4 39.5099C24.4 39.5099 9.61998 39.99 9.58998 39.99Z" fill="#FFB800"/>
<path d="M43.07 20.2499L24.33 37.2199L9.59 37.6899L19.41 21.9199L43.07 20.2499ZM43.07 15.6499C42.96 15.6499 42.85 15.6499 42.74 15.6599L19.09 17.3299C17.62 17.4299 16.29 18.2399 15.51 19.4899L5.69 35.2599C4.79 36.6999 4.76 38.5199 5.61 39.9899C6.43 41.4199 7.95 42.2899 9.59 42.2899C9.64 42.2899 9.69 42.2899 9.74 42.2899L24.47 41.8199C25.56 41.7799 26.6 41.3599 27.41 40.6299L46.15 23.6599C47.6 22.3399 48.06 20.2499 47.29 18.4499C46.57 16.7399 44.9 15.6499 43.07 15.6499Z" fill="#182738"/>
<path d="M42.43 58.4501C41.84 58.4501 41.25 58.23 40.8 57.78L24.42 41.39C23.99 40.96 23.75 40.37 23.75 39.76C23.75 39.15 23.99 38.5601 24.42 38.1301L53.45 9.12005C57.46 5.10005 64.75 2.30005 71.17 2.30005C73.43 2.30005 75.49 2.64005 77.32 3.32005C77.66 3.42005 77.97 3.59005 78.22 3.83005C78.54 4.12005 78.78 4.50005 78.89 4.93005C81.75 12.7 78.15 23.68 73.08 28.75L44.06 57.7701C43.61 58.2201 43.02 58.4501 42.43 58.4501Z" fill="#FFB800"/>
<path d="M71.17 4.6C73.11 4.6 74.99 4.89 76.65 5.53L76.66 5.52C76.66 5.53 76.66 5.53 76.66 5.53C76.67 5.53 76.67 5.53 76.67 5.53L76.66 5.54C79.29 12.35 75.97 22.6 71.45 27.12L42.43 56.15L26.05 39.76L55.08 10.74C58.49 7.33 65.17 4.6 71.17 4.6ZM71.17 0C64.18 0 56.23 3.08 51.82 7.49L22.79 36.51C21.93 37.37 21.44 38.54 21.44 39.76C21.44 40.98 21.92 42.15 22.79 43.01L39.18 59.4C40.08 60.3 41.26 60.75 42.43 60.75C43.61 60.75 44.78 60.3 45.68 59.4L74.7 30.38C80.39 24.69 84.25 12.85 81.04 4.13C80.87 3.58 80.59 3.08 80.24 2.64C79.65 1.91 78.86 1.38 77.97 1.11C75.93 0.37 73.64 0 71.17 0Z" fill="#182738"/>
<path d="M76.67 5.56006C79.28 12.3701 75.97 22.6101 71.45 27.1301L42.43 56.1501L34.25 47.9701L76.67 5.56006Z" fill="#FF9900"/>
<path d="M60.99 16.02C59.56 17.45 59.56 19.78 60.99 21.21C62.42 22.64 64.74 22.64 66.18 21.21C67.61 19.78 67.61 17.45 66.18 16.02C64.75 14.59 62.42 14.59 60.99 16.02Z" stroke="#182738" stroke-width="4.6" stroke-miterlimit="10" stroke-linejoin="round"/>
<path d="M25.69 56.6201L6.13 76.1801" stroke="white" stroke-width="4.6" stroke-miterlimit="10" stroke-linecap="round" stroke-linejoin="round"/>
<path d="M16.91 47.8401L2.29999 62.4501" stroke="white" stroke-width="4.6" stroke-miterlimit="10" stroke-linecap="round" stroke-linejoin="round"/>
<path d="M34.35 65.28L19.74 79.89" stroke="white" stroke-width="4.6" stroke-miterlimit="10" stroke-linecap="round" stroke-linejoin="round"/>
<path d="M37.72 36.47L48.22 26.47" stroke="white" stroke-width="4.6" stroke-miterlimit="10" stroke-linecap="round" stroke-linejoin="round"/>
</g>
<defs>
<clipPath id="clip0">
<rect width="82.21" height="82.19" fill="white"/>
</clipPath>
</defs>
</svg>
