<svg width="101" height="96" viewBox="0 0 101 96" fill="none" xmlns="http://www.w3.org/2000/svg">
<g clip-path="url(#clip0)">
<path d="M71.7402 50.6701C71.7402 56.2501 69.6002 61.5301 65.7102 65.5401C61.3202 70.0601 59.1902 74.4301 59.1902 78.9101V82.3601C59.1902 86.9701 55.8902 91.1101 50.0702 91.1101L50.0002 29.3201C62.3602 28.9801 71.7402 39.1301 71.7402 50.6701Z" fill="#FFB800"/>
<path d="M29.04 50.6701C29.04 56.2501 31.18 61.5301 35.07 65.5401C39.46 70.0601 41.59 74.4301 41.59 78.9101V82.3601C41.59 86.9701 44.89 91.1101 50.71 91.1101L50.78 29.3201C38.42 28.9801 29.04 39.1301 29.04 50.6701Z" fill="#FF9900"/>
<path d="M61.09 40.7001C58.25 37.8601 54.32 36.1001 49.98 36.1001" stroke="white" stroke-width="4.6" stroke-miterlimit="10" stroke-linecap="round" stroke-linejoin="round"/>
<path d="M40.34 77.25H60.65" stroke="#182738" stroke-width="4.6" stroke-miterlimit="10" stroke-linejoin="round"/>
<path d="M40.34 84.3101H60.65" stroke="#182738" stroke-width="4.6" stroke-miterlimit="10" stroke-linejoin="round"/>
<path d="M73.83 50.67C73.83 37.74 63.35 27.26 50.42 27.26C37.49 27.26 27.01 37.74 27.01 50.67C27.01 57 29.53 62.74 33.62 66.96C36.83 70.27 39.57 74.31 39.57 78.92V82.37C39.57 88.37 44.43 93.23 50.43 93.23C56.43 93.23 61.29 88.37 61.29 82.37V78.92C61.29 74.31 64.02 70.27 67.24 66.96C71.31 62.74 73.83 57 73.83 50.67Z" stroke="#182738" stroke-width="4.6" stroke-miterlimit="10" stroke-linejoin="round"/>
<path d="M16.39 84.4501L26 74.8401" stroke="white" stroke-width="4.6" stroke-miterlimit="10" stroke-linecap="round" stroke-linejoin="round"/>
<path d="M2.3 50.4202H15.89" stroke="white" stroke-width="4.6" stroke-miterlimit="10" stroke-linecap="round" stroke-linejoin="round"/>
<path d="M16.39 16.3901L26 26.0001" stroke="white" stroke-width="4.6" stroke-miterlimit="10" stroke-linecap="round" stroke-linejoin="round"/>
<path d="M50.42 2.30005V15.89" stroke="white" stroke-width="4.6" stroke-miterlimit="10" stroke-linecap="round" stroke-linejoin="round"/>
<path d="M84.45 16.3901L74.84 26.0001" stroke="white" stroke-width="4.6" stroke-miterlimit="10" stroke-linecap="round" stroke-linejoin="round"/>
<path d="M98.54 50.4202H84.96" stroke="white" stroke-width="4.6" stroke-miterlimit="10" stroke-linecap="round" stroke-linejoin="round"/>
<path d="M84.45 84.4501L74.84 74.8401" stroke="white" stroke-width="4.6" stroke-miterlimit="10" stroke-linecap="round" stroke-linejoin="round"/>
</g>
<defs>
<clipPath id="clip0">
<rect width="100.84" height="95.52" fill="white"/>
</clipPath>
</defs>
</svg>
