<svg width="24" height="20" viewBox="0 0 24 20" fill="none" xmlns="http://www.w3.org/2000/svg">
<path d="M23.9532 0.52711C23.9338 0.43849 23.8912 0.356582 23.8299 0.289677C23.7687 0.222772 23.6908 0.173245 23.6042 0.14611C23.2889 0.0836609 22.9626 0.106796 22.6592 0.213111C22.6592 0.213111 1.63021 7.77211 0.429212 8.60911C0.171212 8.78911 0.084212 8.89411 0.041212 9.01711C-0.166788 9.61711 0.480212 9.87511 0.480212 9.87511L5.90021 11.6411C5.99186 11.6576 6.08609 11.6521 6.17521 11.6251C7.40721 10.8461 18.5752 3.79111 19.2242 3.55411C19.3242 3.52411 19.4012 3.55411 19.3812 3.62911C19.1232 4.53411 9.47221 13.1071 9.41921 13.1591C9.39339 13.1803 9.37328 13.2075 9.36071 13.2385C9.34813 13.2694 9.34349 13.3029 9.34721 13.3361L8.84121 18.6281C8.84121 18.6281 8.62921 20.2751 10.2762 18.6281C11.4442 17.4591 12.5652 16.4911 13.1252 16.0201C14.9892 17.3071 16.9942 18.7301 17.8592 19.4751C18.0047 19.6159 18.1771 19.726 18.3661 19.7987C18.5551 19.8714 18.7568 19.9052 18.9592 19.8981C19.2084 19.8677 19.4425 19.7622 19.6302 19.5955C19.818 19.4289 19.9505 19.209 20.0102 18.9651C20.0102 18.9651 23.8402 3.54211 23.9682 1.47611C23.9812 1.27611 23.9982 1.14411 24.0002 1.00511C24.0064 0.844379 23.9906 0.683552 23.9532 0.52711Z" fill="white"/>
</svg>
